Computer Architecture/CA2022_lab1/codes/CPU.vcd
$date
	Mon Dec  5 20:39:12 2022
$end
$version
	Icarus Verilog
$end
$timescale
	1s
$end
$scope module TestBench $end
$var reg 1 ! Clk $end
$var reg 1 " Reset $end
$var reg 1 # Start $end
$var integer 32 $ counter [31:0] $end
$var integer 32 % flush [31:0] $end
$var integer 32 & i [31:0] $end
$var integer 32 ' outfile [31:0] $end
$var integer 32 ( stall [31:0] $end
$scope module CPU $end
$var wire 1 ! clk_i $end
$var wire 1 " rst_i $end
$var wire 1 # start_i $end
$var wire 1 ) WB_RegWrite $end
$var wire 32 * WB_RDdata [31:0] $end
$var wire 5 + WB_RDaddr [4:0] $end
$var wire 1 , WB_MemtoReg $end
$var wire 32 - WB_MemReadData [31:0] $end
$var wire 32 . WB_ALURet [31:0] $end
$var wire 1 / Stall $end
$var wire 1 0 PCWrite $end
$var wire 1 1 NoOp $end
$var wire 32 2 MEM_WriteData [31:0] $end
$var wire 1 3 MEM_RegWrite $end
$var wire 5 4 MEM_RDaddr [4:0] $end
$var wire 1 5 MEM_MemtoReg $end
$var wire 1 6 MEM_MemWrite $end
$var wire 32 7 MEM_MemReadData [31:0] $end
$var wire 1 8 MEM_MemRead $end
$var wire 32 9 MEM_ALURet [31:0] $end
$var wire 32 : IF_pc_new [31:0] $end
$var wire 32 ; IF_pc_imm [31:0] $end
$var wire 32 < IF_pc_4 [31:0] $end
$var wire 32 = IF_pc [31:0] $end
$var wire 32 > IF_instr [31:0] $end
$var wire 32 ? ID_pc [31:0] $end
$var wire 32 @ ID_instr [31:0] $end
$var wire 1 A ID_RegWrite $end
$var wire 32 B ID_RS2data [31:0] $end
$var wire 32 C ID_RS1data [31:0] $end
$var wire 1 D ID_MemtoReg $end
$var wire 1 E ID_MemWrite $end
$var wire 1 F ID_MemRead $end
$var wire 32 G ID_IMM [31:0] $end
$var wire 1 H ID_ALUSrc $end
$var wire 2 I ID_ALUOp [1:0] $end
$var wire 2 J ForwardB [1:0] $end
$var wire 2 K ForwardA [1:0] $end
$var wire 1 L Flush $end
$var wire 32 M EX_instr [31:0] $end
$var wire 32 N EX_WriteData [31:0] $end
$var wire 1 O EX_RegWrite $end
$var wire 32 P EX_RS2data [31:0] $end
$var wire 32 Q EX_RS1data [31:0] $end
$var wire 1 R EX_MemtoReg $end
$var wire 1 S EX_MemWrite $end
$var wire 1 T EX_MemRead $end
$var wire 32 U EX_IMM [31:0] $end
$var wire 1 V EX_ALUSrc $end
$var wire 32 W EX_ALURet [31:0] $end
$var wire 2 X EX_ALUOp [1:0] $end
$var wire 1 Y Branch $end
$var wire 32 Z ALUSrc2 [31:0] $end
$var wire 32 [ ALUSrc1 [31:0] $end
$var wire 3 \ ALUCtrl [2:0] $end
$scope module ALU $end
$var wire 32 ] data_o [31:0] $end
$var wire 32 ^ data2_i [31:0] $end
$var wire 32 _ data1_i [31:0] $end
$var wire 3 ` ALUCtrl_i [2:0] $end
$upscope $end
$scope module ALU_Control $end
$var wire 10 a funct_i [9:0] $end
$var wire 2 b ALUOp_i [1:0] $end
$var wire 3 c ALUCtrl_o [2:0] $end
$upscope $end
$scope module Add_4 $end
$var wire 32 d data2_in [31:0] $end
$var wire 32 e data_o [31:0] $end
$var wire 32 f data1_in [31:0] $end
$upscope $end
$scope module Add_imm $end
$var wire 32 g data_o [31:0] $end
$var wire 32 h data2_in [31:0] $end
$var wire 32 i data1_in [31:0] $end
$upscope $end
$scope module Control $end
$var wire 7 j Op_i [6:0] $end
$var wire 1 A RegWrite_o $end
$var wire 1 1 NoOp_i $end
$var wire 1 D MemtoReg_o $end
$var wire 1 E MemWrite_o $end
$var wire 1 F MemRead_o $end
$var wire 1 Y Branch_o $end
$var wire 1 H ALUSrc_o $end
$var wire 2 k ALUOp_o [1:0] $end
$upscope $end
$scope module Data_Memory $end
$var wire 1 ! clk_i $end
$var wire 32 l data_o [31:0] $end
$var wire 32 m data_i [31:0] $end
$var wire 32 n addr_i [31:0] $end
$var wire 1 6 MemWrite_i $end
$var wire 1 8 MemRead_i $end
$upscope $end
$scope module EX_MEM $end
$var wire 32 o ALURet_i [31:0] $end
$var wire 5 p RDaddr_i [4:0] $end
$var wire 1 ! clk_i $end
$var wire 1 " rst_i $end
$var wire 32 q WriteData_i [31:0] $end
$var wire 1 O RegWrite_i $end
$var wire 1 R MemtoReg_i $end
$var wire 1 S MemWrite_i $end
$var wire 1 T MemRead_i $end
$var reg 32 r ALURet_o [31:0] $end
$var reg 1 8 MemRead_o $end
$var reg 1 6 MemWrite_o $end
$var reg 1 5 MemtoReg_o $end
$var reg 5 s RDaddr_o [4:0] $end
$var reg 1 3 RegWrite_o $end
$var reg 32 t WriteData_o [31:0] $end
$upscope $end
$scope module Flusher $end
$var wire 1 Y Branch_i $end
$var wire 32 u RS2data_i [31:0] $end
$var wire 32 v RS1data_i [31:0] $end
$var wire 1 L Flush_o $end
$upscope $end
$scope module Forwarding_Unit $end
$var wire 5 w EX_RS1addr_i [4:0] $end
$var wire 5 x EX_RS2addr_i [4:0] $end
$var wire 5 y MEM_RDaddr_i [4:0] $end
$var wire 1 3 MEM_RegWrite_i $end
$var wire 1 z PCWrite_o $end
$var wire 1 ) WB_RegWrite_i $end
$var wire 5 { WB_RDaddr_i [4:0] $end
$var wire 2 | ForwardB_o [1:0] $end
$var wire 2 } ForwardA_o [1:0] $end
$upscope $end
$scope module Hazard_Detection_Unit $end
$var wire 5 ~ EX_RDaddr_i [4:0] $end
$var wire 5 !" ID_RS1addr_i [4:0] $end
$var wire 5 "" ID_RS2addr_i [4:0] $end
$var wire 1 / Stall_o $end
$var wire 1 0 PCWrite_o $end
$var wire 1 1 NoOp_o $end
$var wire 1 T EX_MemRead_i $end
$upscope $end
$scope module ID_EX $end
$var wire 2 #" ALUOp_i [1:0] $end
$var wire 1 H ALUSrc_i $end
$var wire 1 F MemRead_i $end
$var wire 1 E MemWrite_i $end
$var wire 1 D MemtoReg_i $end
$var wire 1 A RegWrite_i $end
$var wire 1 ! clk_i $end
$var wire 1 " rst_i $end
$var wire 32 $" instr_i [31:0] $end
$var wire 32 %" imm_i [31:0] $end
$var wire 32 &" RS2data_i [31:0] $end
$var wire 32 '" RS1data_i [31:0] $end
$var reg 2 (" ALUOp_o [1:0] $end
$var reg 1 V ALUSrc_o $end
$var reg 1 T MemRead_o $end
$var reg 1 S MemWrite_o $end
$var reg 1 R MemtoReg_o $end
$var reg 32 )" RS1data_o [31:0] $end
$var reg 32 *" RS2data_o [31:0] $end
$var reg 1 O RegWrite_o $end
$var reg 32 +" imm_o [31:0] $end
$var reg 32 ," instr_o [31:0] $end
$upscope $end
$scope module IF_ID $end
$var wire 1 ! clk_i $end
$var wire 1 L flush_i $end
$var wire 1 " rst_i $end
$var wire 1 / stall_i $end
$var wire 32 -" pc_i [31:0] $end
$var wire 32 ." instr_i [31:0] $end
$var reg 32 /" instr_o [31:0] $end
$var reg 32 0" pc_o [31:0] $end
$upscope $end
$scope module IMM_GEN $end
$var wire 32 1" data_i [31:0] $end
$var wire 32 2" data_o [31:0] $end
$upscope $end
$scope module Instruction_Memory $end
$var wire 32 3" instr_o [31:0] $end
$var wire 32 4" addr_i [31:0] $end
$upscope $end
$scope module MEM_WB $end
$var wire 32 5" ALURet_i [31:0] $end
$var wire 1 5 MemtoReg_i $end
$var wire 5 6" RDaddr_i [4:0] $end
$var wire 32 7" ReadData_i [31:0] $end
$var wire 1 3 RegWrite_i $end
$var wire 1 ! clk_i $end
$var wire 1 " rst_i $end
$var reg 32 8" ALURet_o [31:0] $end
$var reg 1 , MemtoReg_o $end
$var reg 5 9" RDaddr_o [4:0] $end
$var reg 32 :" ReadData_o [31:0] $end
$var reg 1 ) RegWrite_o $end
$upscope $end
$scope module MUX2_PC $end
$var wire 32 ;" data0_i [31:0] $end
$var wire 32 <" data1_i [31:0] $end
$var wire 1 L select_i $end
$var wire 32 =" data_o [31:0] $end
$upscope $end
$scope module MUX2_WB $end
$var wire 32 >" data0_i [31:0] $end
$var wire 32 ?" data1_i [31:0] $end
$var wire 1 , select_i $end
$var wire 32 @" data_o [31:0] $end
$upscope $end
$scope module MUX_ALUSrc $end
$var wire 32 A" data1_i [31:0] $end
$var wire 1 V select_i $end
$var wire 32 B" data_o [31:0] $end
$var wire 32 C" data0_i [31:0] $end
$upscope $end
$scope module MUX_FA $end
$var wire 32 D" data0_i [31:0] $end
$var wire 32 E" data1_i [31:0] $end
$var wire 32 F" data2_i [31:0] $end
$var wire 32 G" data3_i [31:0] $end
$var wire 2 H" select_i [1:0] $end
$var wire 32 I" data_o [31:0] $end
$upscope $end
$scope module MUX_FB $end
$var wire 32 J" data0_i [31:0] $end
$var wire 32 K" data1_i [31:0] $end
$var wire 32 L" data2_i [31:0] $end
$var wire 32 M" data3_i [31:0] $end
$var wire 2 N" select_i [1:0] $end
$var wire 32 O" data_o [31:0] $end
$upscope $end
$scope module PC $end
$var wire 1 0 PCWrite_i $end
$var wire 1 ! clk_i $end
$var wire 32 P" pc_i [31:0] $end
$var wire 1 " rst_i $end
$var wire 1 # start_i $end
$var reg 32 Q" pc_o [31:0] $end
$upscope $end
$scope module Registers $end
$var wire 5 R" RDaddr_i [4:0] $end
$var wire 32 S" RDdata_i [31:0] $end
$var wire 5 T" RS1addr_i [4:0] $end
$var wire 5 U" RS2addr_i [4:0] $end
$var wire 1 ) RegWrite_i $end
$var wire 1 ! clk_i $end
$var wire 32 V" RS2data_o [31:0] $end
$var wire 32 W" RS1data_o [31:0] $end
$upscope $end
$upscope $end
$upscope $end
$enddefinitions $end
#0
$dumpvars
b0 W"
b0 V"
b0 U"
b0 T"
b0 S"
b0 R"
b0 Q"
b100 P"
b0 O"
b0 N"
bz M"
b0 L"
b0 K"
b0 J"
b0 I"
b0 H"
bz G"
b0 F"
b0 E"
b0 D"
b0 C"
b0 B"
b0 A"
b0 @"
b0 ?"
b0 >"
b100 ="
b0 <"
b100 ;"
b0 :"
b0 9"
b0 8"
b0 7"
b0 6"
b0 5"
b0 4"
b110000010011 3"
b0 2"
b0 1"
b0 0"
b0 /"
b110000010011 ."
b0 -"
b0 ,"
b0 +"
b0 *"
b0 )"
b0 ("
b0 '"
b0 &"
b0 %"
b0 $"
b11 #"
b0 ""
b0 !"
b0 ~
b0 }
b0 |
b0 {
zz
b0 y
b0 x
b0 w
b0 v
b0 u
b0 t
b0 s
b0 r
b0 q
b0 p
b0 o
b0 n
b0 m
b0 l
b11 k
b0 j
b0 i
b0 h
b0 g
b0 f
b100 e
b100 d
b0 c
b0 b
b0 a
b0 `
b0 _
b0 ^
b0 ]
b0 \
b0 [
b0 Z
0Y
b0 X
b0 W
0V
b0 U
0T
0S
0R
b0 Q
b0 P
0O
b0 N
b0 M
0L
b0 K
b0 J
b11 I
0H
b0 G
0F
0E
0D
b0 C
b0 B
0A
b0 @
b0 ?
b110000010011 >
b0 =
b100 <
b0 ;
b100 :
b0 9
08
b0 7
06
05
b0 4
03
b0 2
01
10
0/
b0 .
b0 -
0,
b0 +
b0 *
0)
b0 (
b11 '
b100000 &
b0 %
b0 $
0#
1"
1!
$end
#12
1#
0"
#25
0!
#50
1A
1H
b1 I
b1 k
b1 #"
b10011 j
b10000000000110100010011 >
b10000000000110100010011 ."
b10000000000110100010011 3"
b1000 :
b1000 ="
b1000 P"
b11 X
b11 b
b11 ("
b110000010011 @
b110000010011 $"
b110000010011 /"
b110000010011 1"
b1000 <
b1000 e
b1000 ;"
b100 =
b100 f
b100 -"
b100 4"
b100 Q"
b1 $
1!
#75
0!
#100
b100 G
b100 h
b100 %"
b100 2"
b10000000000111000010011 >
b10000000000111000010011 ."
b10000000000111000010011 3"
b1100 :
b1100 ="
b1100 P"
b100 ""
b100 U"
b11000 p
b11000 ~
b1100 <
b1100 e
b1100 ;"
b1000 =
b1000 f
b1000 -"
b1000 4"
b1000 Q"
b10000000000110100010011 @
b10000000000110100010011 $"
b10000000000110100010011 /"
b10000000000110100010011 1"
b1000 ;
b1000 g
b1000 <"
b100 ?
b100 i
b100 0"
b110000010011 M
b110000010011 ,"
1V
b1 X
b1 b
b1 ("
1O
b10 $
1!
#125
0!
#150
b100 W
b100 ]
b100 o
b11010 p
b100 x
b11010 ~
b100 Z
b100 ^
b100 B"
b11111111111100000000011110010011 >
b11111111111100000000011110010011 ."
b11111111111100000000011110010011 3"
b10000 :
b10000 ="
b10000 P"
b11000 4
b11000 s
b11000 y
b11000 6"
13
b10000000000110100010011 M
b10000000000110100010011 ,"
b100 U
b100 +"
b100 A"
b10000000000111000010011 @
b10000000000111000010011 $"
b10000000000111000010011 /"
b10000000000111000010011 1"
b1100 ;
b1100 g
b1100 <"
b1000 ?
b1000 i
b1000 0"
b10000 <
b10000 e
b10000 ;"
b1100 =
b1100 f
b1100 -"
b1100 4"
b1100 Q"
b11 $
1!
#175
0!
#200
b11111111111111111111111111111111 G
b11111111111111111111111111111111 h
b11111111111111111111111111111111 %"
b11111111111111111111111111111111 2"
b111110 B
b111110 u
b111110 &"
b111110 V"
b11110011010000110010110011 >
b11110011010000110010110011 ."
b11110011010000110010110011 3"
b10100 :
b10100 ="
b10100 P"
b11111 ""
b11111 U"
b11100 p
b11100 ~
b10100 <
b10100 e
b10100 ;"
b10000 =
b10000 f
b10000 -"
b10000 4"
b10000 Q"
b11111111111100000000011110010011 @
b11111111111100000000011110010011 $"
b11111111111100000000011110010011 /"
b11111111111100000000011110010011 1"
b1011 ;
b1011 g
b1011 <"
b1100 ?
b1100 i
b1100 0"
b10000000000111000010011 M
b10000000000111000010011 ,"
b11010 4
b11010 s
b11010 y
b11010 6"
b100 9
b100 n
b100 r
b100 5"
b100 F"
b100 L"
b11000 +
b11000 {
b11000 9"
b11000 R"
1)
b100 $
1!
#225
0!
#250
0H
b0 I
b0 k
b0 #"
b11111111111111111111111111111111 W
b11111111111111111111111111111111 ]
b11111111111111111111111111111111 o
b100000111000 G
b100000111000 h
b100000111000 %"
b100000111000 2"
b111000 B
b111000 u
b111000 &"
b111000 V"
b100 C
b100 v
b100 '"
b100 W"
b100 *
b100 @"
b100 E"
b100 K"
b100 S"
b1111 p
b11111 x
b1111 ~
b1111111000 a
b11111111111111111111111111111111 Z
b11111111111111111111111111111111 ^
b11111111111111111111111111111111 B"
b111110 N
b111110 q
b111110 C"
b111110 O"
b11100 ""
b11010 !"
b110011 j
b11100 U"
b11010 T"
b11111111111111010000110100010011 >
b11111111111111010000110100010011 ."
b11111111111111010000110100010011 3"
b11000 :
b11000 ="
b11000 P"
b11010 +
b11010 {
b11010 9"
b11010 R"
b100 .
b100 8"
b100 >"
b11100 4
b11100 s
b11100 y
b11100 6"
b11111111111100000000011110010011 M
b11111111111100000000011110010011 ,"
b11111111111111111111111111111111 U
b11111111111111111111111111111111 +"
b11111111111111111111111111111111 A"
b111110 P
b111110 *"
b111110 J"
b11110011010000110010110011 @
b11110011010000110010110011 $"
b11110011010000110010110011 /"
b11110011010000110010110011 1"
b100001001000 ;
b100001001000 g
b100001001000 <"
b10000 ?
b10000 i
b10000 0"
b11000 <
b11000 e
b11000 ;"
b10100 =
b10100 f
b10100 -"
b10100 4"
b10100 Q"
b101 $
1!
#275
0!
#300
1H
b1 J
b1 |
b1 N"
b11111111111111111111111111111111 G
b11111111111111111111111111111111 h
b11111111111111111111111111111111 %"
b11111111111111111111111111111111 2"
b1 I
b1 k
b1 #"
b10000 W
b10000 ]
b10000 o
b111110 B
b111110 u
b111110 &"
b111110 V"
b11001010110110000011 >
b11001010110110000011 ."
b11001010110110000011 3"
b11100 :
b11100 ="
b11100 P"
b11111 ""
b10011 j
b11111 U"
b11001 p
b11100 x
b11010 w
b11001 ~
b1000 a
b100 N
b100 q
b100 C"
b100 O"
b100 [
b100 _
b100 I"
b100 Z
b100 ^
b100 B"
b10 \
b10 `
b10 c
b11100 <
b11100 e
b11100 ;"
b11000 =
b11000 f
b11000 -"
b11000 4"
b11000 Q"
b11111111111111010000110100010011 @
b11111111111111010000110100010011 $"
b11111111111111010000110100010011 /"
b11111111111111010000110100010011 1"
b10011 ;
b10011 g
b10011 <"
b10100 ?
b10100 i
b10100 0"
b11110011010000110010110011 M
b11110011010000110010110011 ,"
b100000111000 U
b100000111000 +"
b100000111000 A"
b111000 P
b111000 *"
b111000 J"
b100 Q
b100 )"
b100 D"
0V
b0 X
b0 b
b0 ("
b1111 4
b1111 s
b1111 y
b1111 6"
b111110 2
b111110 m
b111110 t
b11111111111111111111111111111111 9
b11111111111111111111111111111111 n
b11111111111111111111111111111111 r
b11111111111111111111111111111111 5"
b11111111111111111111111111111111 F"
b11111111111111111111111111111111 L"
b11100 +
b11100 {
b11100 9"
b11100 R"
b110 $
1!
#325
0!
#350
1D
1F
b0 J
b0 |
b0 N"
b111110 N
b111110 q
b111110 C"
b111110 O"
b10 I
b10 k
b10 #"
b11 W
b11 ]
b11 o
b0 G
b0 h
b0 %"
b0 2"
b0 B
b0 u
b0 &"
b0 V"
b11111111111111111111111111100111 C
b11111111111111111111111111100111 v
b11111111111111111111111111100111 '"
b11111111111111111111111111100111 W"
b11111111111111111111111111111111 *
b11111111111111111111111111111111 @"
b11111111111111111111111111111111 E"
b11111111111111111111111111111111 K"
b11111111111111111111111111111111 S"
b11010 p
b11111 x
b11010 ~
b1111111000 a
b11111111111111111111111111111111 Z
b11111111111111111111111111111111 ^
b11111111111111111111111111111111 B"
b0 \
b0 `
b0 c
b0 ""
b11001 !"
b11 j
b0 U"
b11001 T"
b1101111000000110000110011 >
b1101111000000110000110011 ."
b1101111000000110000110011 3"
b100000 :
b100000 ="
b100000 P"
b1111 +
b1111 {
b1111 9"
b1111 R"
b11111111111111111111111111111111 .
b11111111111111111111111111111111 8"
b11111111111111111111111111111111 >"
b11001 4
b11001 s
b11001 y
b11001 6"
b100 2
b100 m
b100 t
b10000 9
b10000 n
b10000 r
b10000 5"
b10000 F"
b10000 L"
b11111111111111010000110100010011 M
b11111111111111010000110100010011 ,"
b11111111111111111111111111111111 U
b11111111111111111111111111111111 +"
b11111111111111111111111111111111 A"
b111110 P
b111110 *"
b111110 J"
1V
b1 X
b1 b
b1 ("
b11001010110110000011 @
b11001010110110000011 $"
b11001010110110000011 /"
b11001010110110000011 1"
b11000 ;
b11000 g
b11000 <"
b11000 ?
b11000 i
b11000 0"
b100000 <
b100000 e
b100000 ;"
b11100 =
b11100 f
b11100 -"
b11100 4"
b11100 Q"
b111 $
1!
#375
0!
#400
0H
00
1/
11
0A
b11000 G
b11000 h
b11000 %"
b11000 2"
0D
0F
b0 I
b0 k
b0 #"
b11111111111111111111111111100101 B
b11111111111111111111111111100101 u
b11111111111111111111111111100101 &"
b11111111111111111111111111100101 V"
b10000 W
b10000 ]
b10000 o
b1 K
b1 }
b1 H"
b0 C
b0 v
b0 '"
b0 W"
b111111010000010001100011 >
b111111010000010001100011 ."
b111111010000010001100011 3"
b100100 :
b100100 ="
b100100 P"
b11011 ""
b11000 !"
b110011 j
b11011 U"
b11000 T"
b11011 p
b0 x
b11001 w
b11011 ~
b10 a
b0 Z
b0 ^
b0 B"
b0 N
b0 q
b0 C"
b0 O"
b10000 [
b10000 _
b10000 I"
b10000 *
b10000 @"
b10000 E"
b10000 K"
b10000 S"
b100100 <
b100100 e
b100100 ;"
b100000 =
b100000 f
b100000 -"
b100000 4"
b100000 Q"
b1101111000000110000110011 @
b1101111000000110000110011 $"
b1101111000000110000110011 /"
b1101111000000110000110011 1"
b110100 ;
b110100 g
b110100 <"
b11100 ?
b11100 i
b11100 0"
b11001010110110000011 M
b11001010110110000011 ,"
b0 U
b0 +"
b0 A"
b0 P
b0 *"
b0 J"
b11111111111111111111111111100111 Q
b11111111111111111111111111100111 )"
b11111111111111111111111111100111 D"
b10 X
b10 b
b10 ("
1T
1R
b11010 4
b11010 s
b11010 y
b11010 6"
b111110 2
b111110 m
b111110 t
b11 9
b11 n
b11 r
b11 5"
b11 F"
b11 L"
b11001 +
b11001 {
b11001 9"
b11001 R"
b10000 .
b10000 8"
b10000 >"
b1000 $
1!
#425
0!
#450
1A
b10000 W
b10000 ]
b10000 o
b0 K
b0 }
b0 H"
b0 [
b0 _
b0 I"
b10 J
b10 |
b10 N"
01
0/
10
b10000 Z
b10000 ^
b10000 B"
b11 *
b11 @"
b11 E"
b11 K"
b11 S"
b11101 7
b11101 l
b11101 7"
b11000 p
b11011 x
b11000 w
b11000 ~
b0 a
b10000 N
b10000 q
b10000 C"
b10000 O"
b0 \
b0 `
b0 c
b11010 +
b11010 {
b11010 9"
b11010 R"
b11 .
b11 8"
b11 >"
b11011 4
b11011 s
b11011 y
b11011 6"
b0 2
b0 m
b0 t
b10000 9
b10000 n
b10000 r
b10000 5"
b10000 F"
b10000 L"
18
15
b1101111000000110000110011 M
b1101111000000110000110011 ,"
b11000 U
b11000 +"
b11000 A"
b11111111111111111111111111100101 P
b11111111111111111111111111100101 *"
b11111111111111111111111111100101 J"
b0 Q
b0 )"
b0 D"
0V
b0 X
b0 b
b0 ("
0T
0R
0O
b1001 $
b1 (
1!
#475
0!
#500
0A
b1000 G
b1000 h
b1000 %"
b1000 2"
b11101 W
b11101 ]
b11101 o
1Y
b11101 Z
b11101 ^
b11101 B"
b11 I
b11 k
b11 #"
b11101 N
b11101 q
b11101 C"
b11101 O"
b11 C
b11 v
b11 '"
b11 W"
b1 J
b1 |
b1 N"
b11111111111111111111111111111111 B
b11111111111111111111111111111111 u
b11111111111111111111111111111111 &"
b11111111111111111111111111111111 V"
b11111110000000000000011011100011 >
b11111110000000000000011011100011 ."
b11111110000000000000011011100011 3"
b101000 :
b101000 ="
b101000 P"
b1111 ""
b11010 !"
b1100011 j
b1111 U"
b11010 T"
b0 7
b0 l
b0 7"
b11101 *
b11101 @"
b11101 E"
b11101 K"
b11101 S"
b101000 <
b101000 e
b101000 ;"
b100100 =
b100100 f
b100100 -"
b100100 4"
b100100 Q"
b111111010000010001100011 @
b111111010000010001100011 $"
b111111010000010001100011 /"
b111111010000010001100011 1"
b101000 ;
b101000 g
b101000 <"
b100000 ?
b100000 i
b100000 0"
1O
b11000 4
b11000 s
b11000 y
b11000 6"
b10000 2
b10000 m
b10000 t
08
05
03
b11011 +
b11011 {
b11011 9"
b11011 R"
b11101 -
b11101 :"
b11101 ?"
b10000 .
b10000 8"
b10000 >"
1,
b1010 $
1!
#525
0!
#550
b11111111111111111111111111101100 G
b11111111111111111111111111101100 h
b11111111111111111111111111101100 %"
b11111111111111111111111111101100 2"
1L
b11111111111111111111111111111111 Z
b11111111111111111111111111111111 ^
b11111111111111111111111111111111 B"
b0 J
b0 |
b0 N"
b11111111111111111111111111111111 N
b11111111111111111111111111111111 q
b11111111111111111111111111111111 C"
b11111111111111111111111111111111 O"
b10 W
b10 ]
b10 o
b0 B
b0 u
b0 &"
b0 V"
b0 C
b0 v
b0 '"
b0 W"
b10000 *
b10000 @"
b10000 E"
b10000 K"
b10000 S"
b1000 p
b1111 x
b11010 w
b1000 ~
b11 [
b11 _
b11 I"
b0 ""
b0 !"
b0 U"
b0 T"
b1100000000010111000100011 >
b1100000000010111000100011 ."
b1100000000010111000100011 3"
b10000 :
b10000 ="
b10000 P"
b11000 +
b11000 {
b11000 9"
b11000 R"
b0 -
b0 :"
b0 ?"
0,
0)
b11101 2
b11101 m
b11101 t
b11101 9
b11101 n
b11101 r
b11101 5"
b11101 F"
b11101 L"
13
b111111010000010001100011 M
b111111010000010001100011 ,"
b1000 U
b1000 +"
b1000 A"
b11111111111111111111111111111111 P
b11111111111111111111111111111111 *"
b11111111111111111111111111111111 J"
b11 Q
b11 )"
b11 D"
b11 X
b11 b
b11 ("
0O
b11111110000000000000011011100011 @
b11111110000000000000011011100011 $"
b11111110000000000000011011100011 /"
b11111110000000000000011011100011 1"
b10000 ;
b10000 g
b10000 <"
b100100 ?
b100100 i
b100100 0"
b101100 <
b101100 e
b101100 ;"
b101000 =
b101000 f
b101000 -"
b101000 4"
b101000 Q"
b1011 $
1!
#575
0!
#600
0L
b0 G
b0 h
b0 %"
b0 2"
0Y
b0 Z
b0 ^
b0 B"
b0 W
b0 ]
b0 o
b11110011010000110010110011 >
b11110011010000110010110011 ."
b11110011010000110010110011 3"
b0 j
b10100 :
b10100 ="
b10100 P"
b1101 p
b0 x
b0 w
b1101 ~
b1111111000 a
b0 N
b0 q
b0 C"
b0 O"
b0 [
b0 _
b0 I"
b11101 *
b11101 @"
b11101 E"
b11101 K"
b11101 S"
b10100 <
b10100 e
b10100 ;"
b10000 =
b10000 f
b10000 -"
b10000 4"
b10000 Q"
b0 @
b0 $"
b0 /"
b0 1"
b101000 ;
b101000 g
b101000 <"
b101000 ?
b101000 i
b101000 0"
b11111110000000000000011011100011 M
b11111110000000000000011011100011 ,"
b11111111111111111111111111101100 U
b11111111111111111111111111101100 +"
b11111111111111111111111111101100 A"
b0 P
b0 *"
b0 J"
b0 Q
b0 )"
b0 D"
b1000 4
b1000 s
b1000 y
b1000 6"
b11111111111111111111111111111111 2
b11111111111111111111111111111111 m
b11111111111111111111111111111111 t
b10 9
b10 n
b10 r
b10 5"
b10 F"
b10 L"
03
b11101 .
b11101 8"
b11101 >"
1)
b1100 $
b1 %
1!
#625
0!
#650
1A
b100000111000 G
b100000111000 h
b100000111000 %"
b100000111000 2"
b0 I
b0 k
b0 #"
b100 B
b100 u
b100 &"
b100 V"
b11 C
b11 v
b11 '"
b11 W"
b10 *
b10 @"
b10 E"
b10 K"
b10 S"
b0 p
b0 ~
b0 a
b11100 ""
b11010 !"
b110011 j
b11100 U"
b11010 T"
b11111111111111010000110100010011 >
b11111111111111010000110100010011 ."
b11111111111111010000110100010011 3"
b11000 :
b11000 ="
b11000 P"
b1000 +
b1000 {
b1000 9"
b1000 R"
b10 .
b10 8"
b10 >"
0)
b1101 4
b1101 s
b1101 y
b1101 6"
b0 2
b0 m
b0 t
b0 9
b0 n
b0 r
b0 5"
b0 F"
b0 L"
b0 M
b0 ,"
b0 U
b0 +"
b0 A"
b11110011010000110010110011 @
b11110011010000110010110011 $"
b11110011010000110010110011 /"
b11110011010000110010110011 1"
b100001001000 ;
b100001001000 g
b100001001000 <"
b10000 ?
b10000 i
b10000 0"
b11000 <
b11000 e
b11000 ;"
b10100 =
b10100 f
b10100 -"
b10100 4"
b10100 Q"
b1101 $
1!
#675
0!
#700
1H
b11111111111111111111111111111111 G
b11111111111111111111111111111111 h
b11111111111111111111111111111111 %"
b11111111111111111111111111111111 2"
b1 I
b1 k
b1 #"
b10 \
b10 `
b10 c
b111110 B
b111110 u
b111110 &"
b111110 V"
b100 Z
b100 ^
b100 B"
b1100 W
b1100 ]
b1100 o
b11001010110110000011 >
b11001010110110000011 ."
b11001010110110000011 3"
b11100 :
b11100 ="
b11100 P"
b11111 ""
b10011 j
b11111 U"
b11001 p
b11100 x
b11010 w
b11001 ~
b1000 a
b100 N
b100 q
b100 C"
b100 O"
b11 [
b11 _
b11 I"
b0 *
b0 @"
b0 E"
b0 K"
b0 S"
b11100 <
b11100 e
b11100 ;"
b11000 =
b11000 f
b11000 -"
b11000 4"
b11000 Q"
b11111111111111010000110100010011 @
b11111111111111010000110100010011 $"
b11111111111111010000110100010011 /"
b11111111111111010000110100010011 1"
b10011 ;
b10011 g
b10011 <"
b10100 ?
b10100 i
b10100 0"
b11110011010000110010110011 M
b11110011010000110010110011 ,"
b100000111000 U
b100000111000 +"
b100000111000 A"
b100 P
b100 *"
b100 J"
b11 Q
b11 )"
b11 D"
b0 X
b0 b
b0 ("
1O
b0 4
b0 s
b0 y
b0 6"
b1101 +
b1101 {
b1101 9"
b1101 R"
b0 .
b0 8"
b0 >"
b1110 $
1!
#725
0!
#750
1D
1F
b10 I
b10 k
b10 #"
b10 W
b10 ]
b10 o
b0 G
b0 h
b0 %"
b0 2"
b0 B
b0 u
b0 &"
b0 V"
b10000 C
b10000 v
b10000 '"
b10000 W"
b11010 p
b11111 x
b11010 ~
b1111111000 a
b111110 N
b111110 q
b111110 C"
b111110 O"
b11111111111111111111111111111111 Z
b11111111111111111111111111111111 ^
b11111111111111111111111111111111 B"
b0 \
b0 `
b0 c
b0 ""
b11001 !"
b11 j
b0 U"
b11001 T"
b1101111000000110000110011 >
b1101111000000110000110011 ."
b1101111000000110000110011 3"
b100000 :
b100000 ="
b100000 P"
b0 +
b0 {
b0 9"
b0 R"
b11001 4
b11001 s
b11001 y
b11001 6"
b100 2
b100 m
b100 t
b1100 9
b1100 n
b1100 r
b1100 5"
b1100 F"
b1100 L"
13
b11111111111111010000110100010011 M
b11111111111111010000110100010011 ,"
b11111111111111111111111111111111 U
b11111111111111111111111111111111 +"
b11111111111111111111111111111111 A"
b111110 P
b111110 *"
b111110 J"
1V
b1 X
b1 b
b1 ("
b11001010110110000011 @
b11001010110110000011 $"
b11001010110110000011 /"
b11001010110110000011 1"
b11000 ;
b11000 g
b11000 <"
b11000 ?
b11000 i
b11000 0"
b100000 <
b100000 e
b100000 ;"
b11100 =
b11100 f
b11100 -"
b11100 4"
b11100 Q"
b1111 $
1!
#775
0!
